module gitlab.com/julianthome/badgerhold/v4

require github.com/dgraph-io/badger/v4 v4.1.0

require (
	github.com/cespare/xxhash/v2 v2.2.0 // indirect
	github.com/dgraph-io/ristretto v0.1.1 // indirect
	github.com/dustin/go-humanize v1.0.1 // indirect
	github.com/gogo/protobuf v1.3.2 // indirect
	github.com/golang/glog v1.1.1 // indirect
	github.com/golang/groupcache v0.0.0-20210331224755-41bb18bfe9da // indirect
	github.com/golang/protobuf v1.5.3 // indirect
	github.com/golang/snappy v0.0.4 // indirect
	github.com/google/flatbuffers v23.3.3+incompatible // indirect
	github.com/klauspost/compress v1.16.5 // indirect
	github.com/pkg/errors v0.9.1 // indirect
	go.opencensus.io v0.24.0 // indirect
	golang.org/x/net v0.9.0 // indirect
	golang.org/x/sys v0.7.0 // indirect
	google.golang.org/protobuf v1.30.0 // indirect
)

go 1.20
